Name,URL,TISS ID
Fakultät für Architektur und Raumplanung,https://tiss.tuwien.ac.at/adressbuch/adressbuch/fakultaet/1616,1616
Fakultät für Bauingenieurwesen,https://tiss.tuwien.ac.at/adressbuch/adressbuch/fakultaet/1607,1607
Fakultät für Elektrotechnik und Informationstechnik,https://tiss.tuwien.ac.at/adressbuch/adressbuch/fakultaet/1637,1637
Fakultät für Informatik,https://tiss.tuwien.ac.at/adressbuch/adressbuch/fakultaet/1601,1601
Fakultät für Maschinenwesen und Betriebswissenschaften,https://tiss.tuwien.ac.at/adressbuch/adressbuch/fakultaet/1670,1670
Fakultät für Mathematik und Geoinformation,https://tiss.tuwien.ac.at/adressbuch/adressbuch/fakultaet/1562,1562
Fakultät für Physik,https://tiss.tuwien.ac.at/adressbuch/adressbuch/fakultaet/1589,1589
Fakultät für Technische Chemie,https://tiss.tuwien.ac.at/adressbuch/adressbuch/fakultaet/1644,1644
