Id	Link	Title	Begin	End	Institute	Members
78	/fpl/project/index.xhtml?id=78	Integrierte Infrastrukturinitiative für Neutronenstreuung und Myonen-Spektroskopie (JRA5: Polarisierte Neutronen-Techniken)	01.01.2004	31.12.2009	E141	575977,1428393,940441,3204389	
130	/fpl/project/index.xhtml?id=130	METEOR	01.01.2002	30.06.2006	E138	1040177,2886813,1438885,2618381	
720	/fpl/project/index.xhtml?id=720	Oxidation of Nanomaterials.	01.01.2004	31.03.2007	E134	1009229,2091741,2768313	
724	/fpl/project/index.xhtml?id=724	P2 Plasmadiagnostik und Modellierung	01.01.2004	31.03.2013	E134	575113,944857,363333,1402801,2950017,2104089	
725	/fpl/project/index.xhtml?id=725	WK + HJSt Wien	01.01.2004	30.11.2005	E134	575113	
1228	/fpl/project/index.xhtml?id=1228	FWF 17449 Wie reagieren Isolatoroberflächen auf hochgeladene Ionen	01.09.2004	31.08.2008	E134	575113,1028433,2950017,3301749,526081	
1269	/fpl/project/index.xhtml?id=1269	Simulation von chaotischen Andreev Billards	01.11.2004	31.10.2008	E136	1028433,3312865,3227137,1964717,4773957,2192929,1986273	
1271	/fpl/project/index.xhtml?id=1271	Innovative HTS Bänder für Magnetfeldanwendungen	01.08.2004	31.03.2008	E141	1755505,1382285,3365249	
1285	/fpl/project/index.xhtml?id=1285	Neutronenoptik für die Grundlagenphysik	01.06.2001	31.12.2005	E141		
1287	/fpl/project/index.xhtml?id=1287	IPP	01.01.2003	31.12.2006	E141	1755505,2516521	
1288	/fpl/project/index.xhtml?id=1288	European Nuclear Engineering Network (ENEN) - Survey of the Present State, Strength and Weaknesses on Nuclear Education in Europe	01.01.2002	31.12.2006	E141	1547525	
1290	/fpl/project/index.xhtml?id=1290	Symposium Neutrons - Konferenz	01.01.2004	31.12.2004	E141	575977	
1518	/fpl/project/index.xhtml?id=1518	MATROSHKA Austria - Bestimmung der biologisch relevanten Strahlendosis in einem anthropomorphen Phantom an der Außenwand der Internationalen Raumstation ISS (KE 2007 offen)	01.04.2004	30.09.2006	E141	903477,879741,2825741	
1617	/fpl/project/index.xhtml?id=1617	Massive Hochtemperatursupraleiter	01.10.2004	31.03.2008	E141	1755505,2660749,3365249	
1853	/fpl/project/index.xhtml?id=1853	KKKÖ - Stöße langsamer Alphateilchen mit Molekülen und Oberflächen	19.07.2004	31.05.2007	E134	575113	
1919	/fpl/project/index.xhtml?id=1919	Oberflächenprozesse und -strukturen bei Laserdeposition	01.11.2004	15.11.2008	E134	2091741,2357885,3367729	
2114	/fpl/project/index.xhtml?id=2114	Entwicklung eines Personendosimetersystems für UV-Strahlung basierend auf optisch stimulierter Lumineszenz (KE 2008 offen)	01.01.2005	06.11.2007	E141	879741,2842357,966917	
2115	/fpl/project/index.xhtml?id=2115	Untersuchung quantenmechanischer Phänomene mit Hilfe neutronenoptischer Experimente für die Quanten-Informations-Technik (QUINTE)	10.12.2004	31.12.2005	E141	571137,2936045	
2260	/fpl/project/index.xhtml?id=2260	Tieftemperatur Testversuche für den Herschel-Kryostat	01.04.2003	31.03.2009	E138	614881,508029,474633,1180093,916937	
2282	/fpl/project/index.xhtml?id=2282	Hawkingfluss	01.01.2005	28.02.2006	E136	1188021	
2328	/fpl/project/index.xhtml?id=2328	HTS-Materialien für Fusions-Magnete (HTSPER)	01.01.2005	31.12.2008	E141	1755505,3222345	
2344	/fpl/project/index.xhtml?id=2344	Kino und Wissenschaft	01.02.2005	31.10.2008	E141	1806389	
2382	/fpl/project/index.xhtml?id=2382	Neue Aspekte der Instrumentierung von Versuchsaufbauten für polarisierte Neutronen: Theoretische und experimentelle Studien (NAPONI)	01.05.2004	29.02.2008	E141	831521	
2387	/fpl/project/index.xhtml?id=2387	Phasenübergänge in der weichen Materie	01.03.2005	01.03.2009	E136	475109,354121,3077561,2409441	
2389	/fpl/project/index.xhtml?id=2389	Thera Ashes	01.06.2005	28.02.2011	E141	845601,3027973,8017997	
2434	/fpl/project/index.xhtml?id=2434	Mikrodilatometer Dresden	31.01.2005	31.12.2005	E138	916937	
2501	/fpl/project/index.xhtml?id=2501	HTS-Bänder der zweiten Generation, hergestellt auf rein chemischem Weg (HIPERCHEM)	01.04.2005	31.12.2008	E141	1755505,3222345,133405,2181009	
2514	/fpl/project/index.xhtml?id=2514	Transmutation hochradioaktiven Abfalls in einem Kernreaktor-Beschleuniger-Hybridsystem (EUROTRANS)	01.03.2005	31.03.2011	E141	831521,1451773	
2517	/fpl/project/index.xhtml?id=2517	Theoretische Kovarianzbestimmung für Reaktionen an Lithium-Isotopen	01.01.2005	31.12.2007	E141	831521	
2691	/fpl/project/index.xhtml?id=2691	Computational Material Science	11.04.2005	12.04.2011	E134	348241,2409441,773225,3129513,4818693,989281,7096781,1259469,1859857,2141517,2201845,1963877	
2802	/fpl/project/index.xhtml?id=2802	Untersuchung quantenmechanischer Phänomene mit Hilfe neutronenoptischer Experimente für die Quanten-Informations-Technik (QUINTE 05-06)	01.04.2005	31.12.2006	E141	571137,2936045	
2886	/fpl/project/index.xhtml?id=2886	Neutronenradiographische und -tomographische Untersuchung von SiCf/SiC-Materialien	01.01.2005	31.12.2006	E141	571137	
3008	/fpl/project/index.xhtml?id=3008	Neutronen-Quantenzustandsrekonstruktion (NEUSTART)	01.05.2005	30.04.2009	E141	571137,2786281,940441,2733985,2936045,1762329,3045697,4555337	
3009	/fpl/project/index.xhtml?id=3009	Messungen mit einem Perfektkristall-Neutronenresonator (PERKRINATOR)	01.05.2005	30.04.2009	E141	571137,1023629,1050189,340241,1125465,1373333	
3054	/fpl/project/index.xhtml?id=3054	Synchrotronstrahlungsinduzierte TXRF-Anwendungen	01.05.2005	31.10.2008	E141	296761,1737737,1325213,2929925	
3239	/fpl/project/index.xhtml?id=3239	Nanostrukturierung von Oberflächen mittels hochgeladenen Ionen	01.10.2005	30.09.2007	E134	2155081	
3621	/fpl/project/index.xhtml?id=3621	Evaluierung der Lagerungsgenauigkeit und Optimierung der Bestrahlungsparameter beim Prostatakarzinom	01.07.2005	31.03.2008	E141	1221517,2773673,2217305,3474285	
3803	/fpl/project/index.xhtml?id=3803	RADIS: Untersuchung der Tiefenverteilung der im menschlichen Körper absorbierten Strahlendosis unter Verwendung eines Phantoms in der Matroshka-Einrichtung an Bord der Internationalen Raumstation	01.05.2005	30.06.2009	E141	903477,879741,2825741,1293109,966917	
3856	/fpl/project/index.xhtml?id=3856	Neutron-Elektron Wechselwirkung im Neutroneninterferometer	01.02.2006	31.12.2010	E141	1286145,2193065	
3873	/fpl/project/index.xhtml?id=3873	Spurenelementanalyse von Trinkwasser und Wein mit Totalreflexions-Röntgenfluoreszenzanalyse (TXRF)	01.12.2005	01.11.2006	E141	296761	
4005	/fpl/project/index.xhtml?id=4005	Analysis of PF Conductor with High C/non-Cu Ratio (PFANAL)	01.01.2006	31.03.2008	E141	1755505	
4129	/fpl/project/index.xhtml?id=4129	Theoretische Kovarianzbestimmung für Reaktionen an Sauerstoff-Isotopen	01.01.2006	31.12.2007	E141	831521	
4208	/fpl/project/index.xhtml?id=4208	Modellierung und Test Hertzscher Kontakte	01.03.2006	30.06.2009	E138	474633,3250305	
4344	/fpl/project/index.xhtml?id=4344	ADLIS - Wechselwirkung ultrakurzer elektromagnetischer Pulse mit Materie	01.04.2006	31.03.2010	E136	1028433,2259505,3194389,4773957,2853905,3271409,5792089,3744525,3312865,6435285,2209229,1964717,1182381,1774689,3126625,1986273,2192929,7609881	
4355	/fpl/project/index.xhtml?id=4355	Untersuchung quantenmechanischer Phänomene mit Hilfe neutronenoptischer Experimente für die Quanteninformationstechnik (QUINTE 06-07)	01.04.2006	31.03.2007	E141	571137,2936045,2733985	
4366	/fpl/project/index.xhtml?id=4366	ADLIS - Koordinationsprojekt	01.04.2006	31.03.2010	E136	1028433,3657901,1107129	
4368	/fpl/project/index.xhtml?id=4368	Modellierung und experimentelle Studien von VN/TiN Grenzflächen ond Oberflächen	01.02.2006	31.01.2008	E134	472309,548745	
4541	/fpl/project/index.xhtml?id=4541	Advanced Insulation for ITER TF Coils (ADINS)	01.05.2006	31.03.2008	E141	1755505,247477,2783097	
4557	/fpl/project/index.xhtml?id=4557	Charakterisierung von Verschleißmechanismen und Oberflächen-Funktionalität im Hinblick auf die Vorhersage der Lebensdauer und Qualitätskriterien - vom Mikro- zum Nanobereich	01.11.2006	31.10.2010	E134	431801,6384989,5899617,2995465	
4608	/fpl/project/index.xhtml?id=4608	Verallgemeinerte Geometrien von effektiven Wirkungen	01.10.2006	30.09.2009	E136	304105,5862905,3757193,4709021,1298721,4840185,2111861	
4609	/fpl/project/index.xhtml?id=4609	Nichtperturbative Effekte in String-Kompaktifizierungen	01.10.2006	30.09.2009	E136	304105,4840185,6279497,6504341,2111861	
4674	/fpl/project/index.xhtml?id=4674	Atomphysik, Quantenoptik, Miniaturisierung auf Chip	01.10.2006	30.09.2013	E141	656041,4023569,1125465,4732397,4600037,1865537,2750805,2178389,3407845,3580049,3893309,3251753,2152445,1122981,1229113,2356025,2150001,1774701	
4729	/fpl/project/index.xhtml?id=4729	Quanten Dekohärenz und Verschränkung: Experiment (DENTANG)	01.10.2006	30.09.2011	E141	571137,4555337,2786281,1762329,11153625,3283613	
4756	/fpl/project/index.xhtml?id=4756	Nano-Engineered Superconductors for Power Applications (NESPA)	01.10.2006	30.06.2011	E141		
4758	/fpl/project/index.xhtml?id=4758	Gravitation, Chern-Simons Erweiterungen, Topologie und Anwendungen in der Festkörperphysik	01.08.2006	31.03.2010	E136	1185641,1793377	
4766	/fpl/project/index.xhtml?id=4766	Reduktion der thermischen Leitfähigkeit in Thermoelectrika	01.08.2006	31.12.2007	E138	1001741	
4782	/fpl/project/index.xhtml?id=4782	European Integrated Activity of Excellence and Networking for Nano- and Micro-Electronics Analysis (ANNA)	01.12.2006	30.06.2011	E141	296761,215397,1737737,1325213,3351993,1278465,1306125,2881197,2929925	
4840	/fpl/project/index.xhtml?id=4840	Geordnete Metall-Cluster an gestuften Oxidoberflächen	01.10.2006	30.09.2011	E134	1009229,3367729,2091741,3376485,180189	
4846	/fpl/project/index.xhtml?id=4846	Beschleuniger-Netzwerk für langsame Ionen: 
Untersuchungen zur Ionentechnik und -Spektroskopie	01.01.2006	30.06.2011	E134	575113,2177301,2104089,2568953,1028433,2155081,2654369,431801,3312865,3301749,585817	
5007	/fpl/project/index.xhtml?id=5007	Erfassung der Strahlenexposition des fliegenden Personals	16.09.2006	13.12.2007	E141	879741,2825741,966917	
5097	/fpl/project/index.xhtml?id=5097	Simulation eines industriellen 3D-Computertomografen	01.10.2006	30.09.2009	E138	474429	
5102	/fpl/project/index.xhtml?id=5102	Thermodynamik und Nichtgleichgewichtsdynamik des Quark-Gluon-Plasma	01.11.2006	31.10.2009	E136	1185641,3009281,3343473,3897333,3744525	
5170	/fpl/project/index.xhtml?id=5170	"PUSANS"-Ultra-Kleinwinkelstreuung mit polarisierten Neutronen	01.12.2006	31.10.2008	E141	575977,1428393	
5204	/fpl/project/index.xhtml?id=5204	Micromanipulation of intern-extern degrees of freedom of mesoscopic atomic ensembles (MIEDFAM)	01.01.2007	31.12.2009	E141	656041,3893309	
5283	/fpl/project/index.xhtml?id=5283	Magnetische und Nichtmagnetische metallische Nanostrukturen	01.01.2007	01.12.2009	E134	1009229,2091741,2824437,2768313,2983525,3376485,3367729,3082085,180189	
5308	/fpl/project/index.xhtml?id=5308	EFDA-Refundierungen	17.07.2006	31.12.2007	E141	1755505,5751253,3425705	
5373	/fpl/project/index.xhtml?id=5373	Neue Symmetrien in Slavnov-erweiterten Eichtheorien	01.03.2007	28.02.2008	E136	1187625,3035993	
5428	/fpl/project/index.xhtml?id=5428	Integrated Infrastructure Initiatives for Material Testing Reactors Innovations	01.10.2006	30.09.2011	E141	1547525,2628469,3174385	
5545	/fpl/project/index.xhtml?id=5545	Der Einfluss der Grenzfläche im Kupferdiamantsystem	01.03.2007	28.02.2010	E138	2061809,2214793	
5547	/fpl/project/index.xhtml?id=5547	ERA-NET-NANO-WISSENSCHAFT 1 .Call NAPHOD	01.02.2007	31.01.2010	E138	1040177,2618381	
5568	/fpl/project/index.xhtml?id=5568	Wechselwirkung in ultrakalten Atom- und Molekülgasen (SPP 1116)	01.03.2007	31.01.2009	E141	656041,4023569,3580049,4600037	
5722	/fpl/project/index.xhtml?id=5722	Elektronisch hochkorrelierte Käfigverbindungen	12.03.2007	31.03.2012	E138	698253,2181125,2287797,214913,2858117,3106597,1253101	
5833	/fpl/project/index.xhtml?id=5833	Untersuchung quantenmechanischer Phänomene mit Hilfe neutronenoptischer Experimente für die Quanteninformationstechnik (QUINTE 07-08)	01.04.2007	31.05.2008	E141	571137,2733985	
5874	/fpl/project/index.xhtml?id=5874	Nanostructures for Atomic Physics (NAP)	01.03.2007	31.07.2009	E141	656041,2150001,3251753,1999673,3393289	
5918	/fpl/project/index.xhtml?id=5918	Neue Symmetrien in Slavnov-erweiterter nicht kommutativen Eichtheorie	01.06.2007	31.05.2008	E136	1187625,1455961,3035993	
5930	/fpl/project/index.xhtml?id=5930	Physics beyond mean-field in ultracold gases on atom chips	01.08.2007	31.07.2009	E141	656041,4886897	
5940	/fpl/project/index.xhtml?id=5940	Neue Zugänge zur Physik des Quark-Gluon-Plasmas	01.07.2007	30.06.2010	E136		
5951	/fpl/project/index.xhtml?id=5951	Kaonisches Deuterium in angeregten Zuständen	01.07.2007	30.06.2011	E141	473689,2819721,1634685	
6008	/fpl/project/index.xhtml?id=6008	Confinement und Deconfinement in Super-Yang-Mills-Theorien	01.08.2007	31.07.2010	E136	1185641,3343473,894969,2552365	
6080	/fpl/project/index.xhtml?id=6080	Mechanismus der chiralen Symmetriebrechung	01.09.2007	31.08.2011	E141	473689,1634685	
6129	/fpl/project/index.xhtml?id=6129	TXRF-Vakuumkammer mit Probenwechsler (WOBISTRAX) an bestehende SEIFERT-Röntgenanlage mit Sekundärtarget anzuschliessen und zu adaptieren nach IAEA Spezifikationen	01.07.2007	31.03.2010	E141	1737737,4982073,296761	
6167	/fpl/project/index.xhtml?id=6167	Doktoratskolleg (DK) W1210-N16	01.10.2007	31.12.2016	E141	656041,3283613,3293213,2152445,5110649,2750805,9736905,1349837,3727369,341837	
6196	/fpl/project/index.xhtml?id=6196	Erweiterung der theoretischen Methoden zur Berechung von Kovarianzen über 20 MeV	18.09.2007	31.12.2010	E141	831521	
6208	/fpl/project/index.xhtml?id=6208	Innovative Blenden für die ITER TF Magnetspulen	01.09.2007	31.12.2009	E141	1755505,247477,2783097	
6246	/fpl/project/index.xhtml?id=6246	Z-Scan Messungen und Laser Ablations Diagnostik	25.10.2007	31.12.2008	E134	852785	
6298	/fpl/project/index.xhtml?id=6298	Glasübergänge von weicher Materie in porösen Materialien	01.12.2007	30.11.2010	E136	475109,3664297,6435285,11586989,7609881	
6328	/fpl/project/index.xhtml?id=6328	Bright solutions and dynamics in Bose-Fermi Mixtures	01.12.2007	30.08.2009	E141	656041,4600037	
6385	/fpl/project/index.xhtml?id=6385	AtomChip: Entwicklung, Anwendung als Magnetfeldsensor	01.01.2008	31.12.2011	E141	656041,2178389,2150001,1122981	
6427	/fpl/project/index.xhtml?id=6427	Portables RFA-Gerät zur Untersuchung von Kunstwerken	01.02.2008	31.12.2010	E141	296761,1737737,2662045	
6482	/fpl/project/index.xhtml?id=6482	Modellierung und experimentelle Untersuchungen von VN/TiN Grenzflächen und Oberflächen	01.02.2008	31.01.2009	E134	472309,548745	
6524	/fpl/project/index.xhtml?id=6524	Entwicklung von Hochtemperatursupraleitern für die Magnetspulen von DEMO	01.01.2008	31.12.2009	E141	1755505,3222345,2783097,2181009	
6525	/fpl/project/index.xhtml?id=6525	Charakterisierung von SiCf/SiC Verbundstoffen: Porenstruktur mittels Neutronen-Kleinwinkelstreuung und Neutronenradiographie	01.01.2008	30.06.2010	E141	571137,1023629	
6526	/fpl/project/index.xhtml?id=6526	Strahlenschädigung von Verbundwerkstoffen	01.01.2008	31.12.2009	E141	571137	
6577	/fpl/project/index.xhtml?id=6577	ÖAW Plasmarandschichtdiagnostik und Plasma-Wand-Wechselwirkung	01.01.2008	31.12.2018	E134	575113,585817,966133,1982613,2950017,1402801,2104089,944857,3283501	
6592	/fpl/project/index.xhtml?id=6592	Renormierung nichtkommutativer Eichfeldtheorien mit dem Mehler Kern	01.03.2008	28.02.2010	E136	1187625,1455961,6083241,6279497,2747805,1173449,3035993,2799433	
6625	/fpl/project/index.xhtml?id=6625	Bleifreie Primärzündmittel	01.01.2007	01.01.2008	E141	1555165	
6655	/fpl/project/index.xhtml?id=6655	KKKÖ Impulsprojekt	01.04.2008	31.12.2009	E134	575113,363333	
6663	/fpl/project/index.xhtml?id=6663	Neutronenaktivierungsanalyse: Neue Methoden in der Physiologie fleischfressender Pflanzen	15.11.2006	01.10.2007	E141	1555165	
6829	/fpl/project/index.xhtml?id=6829	MOVES für Ionen- und Elektroneninduzierte Elektronenemission	01.08.2008	31.07.2013	E134	431801,8471645,1277481,2568953,2487093,5096665	
6868	/fpl/project/index.xhtml?id=6868	TXRF- Vakuumkammer mit Probenwechsler (WOBISTRAX) mit Hochleistungsröntgenquelle monochromatischer Mo - Strahlung	01.05.2008	31.12.2011	E141	1737737,4982073	
6911	/fpl/project/index.xhtml?id=6911	NMI3 - Integrierte Infrastrukturinitiative für Neutronenstreuung und Myonen-Spektroskopie	01.02.2009	31.01.2013	E141	1428393,995269	
6916	/fpl/project/index.xhtml?id=6916	Beschreibung und Kontrolle von Elektronendynamik in starken Feldern	01.08.2008	31.07.2010	E136	1774689	
7014	/fpl/project/index.xhtml?id=7014	Thermoelektrizität in  Clathraten	01.08.2008	30.11.2010	E138	698253,2287797,2181125,1291357	
7015	/fpl/project/index.xhtml?id=7015	Innovative thermische und elektrische Kontaktwerkstoffe für neue
TEG Materialien	01.08.2008	31.07.2010	E138	1001741,2933605,6224889	
7043	/fpl/project/index.xhtml?id=7043	Bright Solitons and Dynamics in Bose-Fermi Mixtures	01.08.2009	31.07.2011	E141	656041,4600037	
7044	/fpl/project/index.xhtml?id=7044	Quanten Verschränkung, Dephasierungs- und Dekohärenz-Effekte in Neutronenexperimenten	01.01.2009	19.05.2014	E141	4555337	
7163	/fpl/project/index.xhtml?id=7163	Hybride Quantensysteme - Integration von Atomaren/Molekularen und Festkörpersystemen	01.10.2008	30.09.2010	E141	656041,1865537	
7164	/fpl/project/index.xhtml?id=7164	Ultra-sensible Messungen mit degenerierten Quantengasen	01.10.2008	30.06.2012	E141	656041,2146697,5110649,4650549,1229113,2152445,7735089	
7199	/fpl/project/index.xhtml?id=7199	Commissariat Energie Atomique - Dissertation Stummer	01.11.2008	30.10.2011	E141	1547525,3174385	
7223	/fpl/project/index.xhtml?id=7223	Charakterisierung des Einflusses der Probenform auf Genauigkeit, Statistik und Reproduzierbarkeit in der TXRF-Analyse von Halbleiteroberflächen	01.01.2009	31.12.2010	E141	296761,1275257	
7231	/fpl/project/index.xhtml?id=7231	Low-Dimensional Quantum Gases	01.12.2008	30.11.2011	E141	5041521,4650549,1229113,1122981	
7232	/fpl/project/index.xhtml?id=7232	Vortex matter properties of superconducting materials	01.01.2009	31.12.2013	E141		
7233	/fpl/project/index.xhtml?id=7233	Menschenähnliches Modell Matroshka zur Bestimmung der Strahlenexposition von Astronauten	01.09.2008	30.09.2011	E141	879741,2825741,2147601,2150253	
7235	/fpl/project/index.xhtml?id=7235	Hybrid Information Processing	01.11.2008	30.04.2012	E141	656041,1999673,3393289	
7288	/fpl/project/index.xhtml?id=7288	Intelligente Modelierung nanoskalierter Materialien	01.04.2009	31.03.2012	E138	5797569,2282677,9846117,4818693	
7314	/fpl/project/index.xhtml?id=7314	Qualifizierung des Isolationssystems aus CE-Epoxid Mischungen  für die ITER TF Spulen	01.01.2009	31.12.2011	E141	1755505,2516521,4663381,2783097,247477	
7374	/fpl/project/index.xhtml?id=7374	Kernfusionsforschung KKKÖ	01.01.2009	30.03.2010	E134	575113,2104089	
7383	/fpl/project/index.xhtml?id=7383	Schwarze Löcher in AdS, dem Universum und analogen Systemen	01.08.2009	30.09.2015	E136	1793377,6529013,8498577,10925217,11595533,3431773,3009281	
7390	/fpl/project/index.xhtml?id=7390	Entwicklung von Hochtemperatursupraleitern für die Magnetspulen von DEMO	01.01.2009	31.12.2009	E141	1755505,2783097,2181009,2167769,133405	
7391	/fpl/project/index.xhtml?id=7391	Messung der Porenstruktur von SiCfSiC mittels Neutronenkleinwinkelstreuung und -tomographie und Auswertung	01.01.2009	31.12.2011	E141	571137,1023629	
7392	/fpl/project/index.xhtml?id=7392	Impulsprojekt Tatlisu	01.01.2009	30.06.2010	E141	571137,1023629	
7393	/fpl/project/index.xhtml?id=7393	Foundations and Applications of Quantum Science - Mesoscopic many-body systems on atoms chips	01.01.2009	31.12.2018	E141	656041,5041521,6773161,4157557,1229113,9147105,11879841,4650549,1122981,5110649	
7401	/fpl/project/index.xhtml?id=7401	Elektron-Korrelation Effekte in laser gesteuertem Helium	01.01.2009	31.12.2011	E136	1155073,7609881,2713957,1182381	
7414	/fpl/project/index.xhtml?id=7414	Nanostructures of Atomic Physics PLATON - NAP	01.03.2009	29.02.2012	E141	656041,4157557,2750805,2437509,2152445,1999673,2150001,2432117	
7524	/fpl/project/index.xhtml?id=7524	Beratung bei der Durchführung des Sicherheitskontrollgesetzes 1991/III	01.10.2008	30.09.2011	E141	3036057,1547525,2958281,2825741	
7525	/fpl/project/index.xhtml?id=7525	Das globale U-236 Inventar	01.01.2009	31.12.2011	E141	845601	
7533	/fpl/project/index.xhtml?id=7533	Spatially resolved atom fluorescence imaging	01.08.2009	31.07.2011	E141	656041,4844561	
7540	/fpl/project/index.xhtml?id=7540	Die Dynamik eines quantenmechanischen Wellenpakets und die Frage nach möglichen Zusatzdimensionen von Raum und Zeit	01.04.2008	31.12.2010	E141	2510661,8528849,6633301,8818897,3773525	
7552	/fpl/project/index.xhtml?id=7552	Dualitäten und Anwendungen in modernen String Theorien	01.04.2009	31.03.2012	E136	1028433,4840185,6279497,2672945,1455961,6849773,7697649	
7572	/fpl/project/index.xhtml?id=7572	Modularer Thermoelektrischer Generator zur Abwärmenutzung von Verbrennungskraftmaschinen	01.03.2009	28.02.2011	E138	1001741,1818209,3779657,1253101,3206569	
7725	/fpl/project/index.xhtml?id=7725	Kartierung der Strahlendosis an Bord von Columbus	01.07.2008	30.09.2011	E141	879741,2147601,2150253	
7823	/fpl/project/index.xhtml?id=7823	Zweifach-, dreifach- und vierfach-Verschränkung in Neutronen	01.07.2009	31.10.2013	E141	1471637,253753,3045697,3283613	
7843	/fpl/project/index.xhtml?id=7843	Verifikation des numerischen Matroshka-Modells und MC-Simulationen in der Strahlungsumgebung der ISS	01.09.2009	31.01.2011	E141	879741,2147601	
7850	/fpl/project/index.xhtml?id=7850	Messung des Restwiderstandes an Blech- oder Drahtproben	01.04.2009	15.04.2009	E138	474633	
7851	/fpl/project/index.xhtml?id=7851	Messung des Restwiderstandes an Blech- oder Drahtproben	16.04.2009	30.04.2009	E138	474633	
7892	/fpl/project/index.xhtml?id=7892	Physik komplexer Kolloide	01.11.2009	31.10.2014	E136	475109,12096797,7221861,8462529	
7942	/fpl/project/index.xhtml?id=7942	Synchrotron-Mikro-RFA von menschlichen Knochen	01.10.2009	30.09.2013	E141	296761,1737737,2929925,2213625,1306125	
7991	/fpl/project/index.xhtml?id=7991	Flussgeometiren, Eichtheorien und Strings	01.10.2009	30.09.2011	E136	1028433,5652557,7697649,4709021,2111861,4840185,6849773	
8072	/fpl/project/index.xhtml?id=8072	Rechnerunterstützte Plasmaphysik am JET	01.09.2009	31.12.2014	E141	1755505,1199165	
8078	/fpl/project/index.xhtml?id=8078	Construction of a complete pneumatic transfer system for short time activation analysis	01.10.2009	31.12.2013	E141	1467717	
8108	/fpl/project/index.xhtml?id=8108	Improvement of Nuclear Data, development of tools and experiments/validation in support of ITER activities	21.04.2009	30.11.2011	E141	831521,1451773,1525225	
8113	/fpl/project/index.xhtml?id=8113	Atomic QUantum TEchnologies	01.02.2010	30.04.2013	E141	656041,1193049,1122981,7735089,3045697,1069093,11416837,7453137	
8150	/fpl/project/index.xhtml?id=8150	At the frontiers of phonons and correlated elelctrons	01.10.2009	30.09.2011	E138	2818593	
8155	/fpl/project/index.xhtml?id=8155	Quantenchromodynamik unter extremen Bedingungen	01.01.2010	31.12.2012	E136	1185641,3744525,2713957,2209229,3271409,2672945,7213037,3009281	
8173	/fpl/project/index.xhtml?id=8173	Kernphysik mit einem Laser: 229Thorium	01.01.2010	31.12.2015	E141	5041521,1151385,1682633	
8179	/fpl/project/index.xhtml?id=8179	Nanostructures formed on surfaces due to the impact of slow highly charged ions	01.01.2010	30.12.2013	E134	575113,585817	
8228	/fpl/project/index.xhtml?id=8228	Theoretische Untersuchungen zum Ladungsaustausch zwischen Wasserstoffatomen und fusionsrelevanten hochgeladenen Ionen	01.01.2010	31.05.2011	E134	575113,1402801	
8233	/fpl/project/index.xhtml?id=8233	Homogenität und Zugbelastung von Hochtemperatursupraleitern	01.01.2010	31.03.2012	E141	1755505,2167769	
8278	/fpl/project/index.xhtml?id=8278	Beschichtung von Gegenständen mit Clathratverbindungen	01.12.2009	31.12.2012	E138	698253	
8315	/fpl/project/index.xhtml?id=8315	Entwicklung von Hochtemperatursupraleitern für die Magnetspulen von DEMO	01.01.2010	30.11.2011	E141	1755505	
8330	/fpl/project/index.xhtml?id=8330	Klassische und quanten-kosmologisch topologisch massive Gravitation	01.02.2010	31.01.2013	E136	1793377,8498577,6529013,10925217,3431773	
8367	/fpl/project/index.xhtml?id=8367	Unkoventionelle Supraleitung	01.02.2010	31.12.2013	E138	1001741,3779657,1335305	
8396	/fpl/project/index.xhtml?id=8396	Graphene als Schutzschicht für Viellagenspiegel	01.01.2010	31.12.2011	E134	1026425,700897,1488485	
8519	/fpl/project/index.xhtml?id=8519	Dirac Eigenmoden und Zentrumsvortices	01.08.2010	31.07.2013	E141	473689,1634685	
8522	/fpl/project/index.xhtml?id=8522	EUROCORES_EuroGenesis_1.Call_Mikroskopic optical potentials for nucleosynthesis	01.07.2010	18.04.2014	E141	831521,10684961	
8554	/fpl/project/index.xhtml?id=8554	Gravitationsinduzierte Phasen in der Neutroneninterferometrie	21.04.2010	20.04.2015	E141	1286145,2733985,6016757	
8565	/fpl/project/index.xhtml?id=8565	Test der Gravitation mit Quantenobjekten	01.07.2010	30.09.2013	E141	2510661,5025701,1084797,4663381,8818897,3773525,13620281,2753141	
8566	/fpl/project/index.xhtml?id=8566	Elektronenspektroskopie mit PERC	01.06.2010	30.09.2014	E141	2510661,4720797,3845189,3079929,10608417,8347869	
8567	/fpl/project/index.xhtml?id=8567	Untersuchungen zur elektrischen Neutralität des Neutrons	01.05.2010	31.12.2014	E141	2510661,13620281,2733985,8347869,5025701,2516521	
8591	/fpl/project/index.xhtml?id=8591	Intensität und Polarisation von Neutronen nach Maß	01.06.2010	31.12.2014	E141	1428393,995269,2753141	
8594	/fpl/project/index.xhtml?id=8594	Supraleiter für LHC Upgrade	01.05.2010	30.06.2014	E141	1755505,2860409	
8645	/fpl/project/index.xhtml?id=8645	Korrelationen, Integrabilität und Thermalisierung in ultrakalten, eindimensionalen atomaren Gasen	01.07.2010	31.08.2014	E141	4886897,10425985	
8657	/fpl/project/index.xhtml?id=8657	Clustermethoden für nicht adiabatische Prozesse	01.06.2010	31.05.2014	E136	1028433,5792089,7609881	
8666	/fpl/project/index.xhtml?id=8666	Multiskalensimulationen von magnetischen Nanostrukturen	01.06.2010	31.12.2018	E138	620485,2021617,3677713	
8670	/fpl/project/index.xhtml?id=8670	Optische Dickenbestimmung auf transparenten Granulaten	01.07.2010	30.06.2013	E138	2061809,1671529	
8686	/fpl/project/index.xhtml?id=8686	Spezialforschungsbereich "Vienna Computational Materials Laboratory";
Projektteil: Complex Magnetic Structures	01.06.2010	31.12.2018	E134	348241,2053897,6547417	
8741	/fpl/project/index.xhtml?id=8741	ADAS-EU subcontract	01.07.2010	31.03.2013	E134	575113,1402801,966133	
8805	/fpl/project/index.xhtml?id=8805	Selbstorganisation von inverse patchy Kolloiden	01.08.2010	31.07.2012	E136	10335889	
8869	/fpl/project/index.xhtml?id=8869	Kritische Ströme in Fe-Supraleiter	01.10.2010	31.03.2015	E141	133405,4673133,10365425	
8872	/fpl/project/index.xhtml?id=8872	Eurocores_EuroGRAPHENE_Graphene-basierte Systeme für Spintronik (SPINGRAPH)	01.09.2010	28.02.2014	E134	472309,5589493	
8954	/fpl/project/index.xhtml?id=8954	Ladungsdynamic von zweidimensionalen Elektronengasen an Grenzflächen und Oberflächen	01.10.2009	31.12.2013	E138	8284201,5679809	
8956	/fpl/project/index.xhtml?id=8956	KKKÖ Impulsprojekt 2011	01.01.2011	31.03.2012	E134	575113,1982613	
8961	/fpl/project/index.xhtml?id=8961	Orbital mapping	01.10.2010	01.10.2015	E138	1040177,2705445,995917	
8980	/fpl/project/index.xhtml?id=8980	TXRF Vakuumkammer mit Probenwechsler	01.10.2010	30.06.2013	E141	1737737	
9047	/fpl/project/index.xhtml?id=9047	Verknüpfung von GW und Dynamischer Molekularfeldtheorie	01.07.2010	30.06.2013	E138	5797569,10815197	
9100	/fpl/project/index.xhtml?id=9100	Self-consistent simulation of plasma scenarios for ITER	01.01.2011	29.02.2012	E141	1755505,1199165	
9117	/fpl/project/index.xhtml?id=9117	ERA NanoSci - Nanofibre Optical Interfaces for Ions, Atoms and Molecules	01.10.2009	30.06.2014	E141	7804773,5772305	
9176	/fpl/project/index.xhtml?id=9176	Messung von Dichtefluktuationen am ASDEX Upgrade	01.01.2011	31.12.2013	E134	575113,966133	
9179	/fpl/project/index.xhtml?id=9179	All-Optical Switching and Strong Coupling Using Tunable Whispering-Gallery-Mode Resonators	01.01.2008	30.06.2011	E141	7804773,8300889	
9212	/fpl/project/index.xhtml?id=9212	Entwicklung von Hochtemperatursupraleitern für die Magnetspulen von DEMO	01.01.2011	31.07.2012	E141	1755505,8017997	
9300	/fpl/project/index.xhtml?id=9300	Korrelierte Elektronendynamik in ultrakurzen, starken mehr-Farben Laserfeldern	01.03.2011	28.02.2014	E136	1774689	
9361	/fpl/project/index.xhtml?id=9361	Quantenmessungen an korrelierten Atompaaren	01.03.2011	31.12.2014	E141	656041,5041521,6773161	
9366	/fpl/project/index.xhtml?id=9366	Atomuhren mit Kernübergängen: theoretische Aspekte	01.04.2011	31.03.2013	E141	5041521,9007449	
9450	/fpl/project/index.xhtml?id=9450	Glasfaser-Quantenoptik	01.05.2007	30.06.2014	E141	7804773,8300889,12906521,10491965,7170117,5117781	
9460	/fpl/project/index.xhtml?id=9460	Thermoelectric clathrates for waste heat recovery	01.03.2011	30.06.2015	E138	698253,2287797	
9462	/fpl/project/index.xhtml?id=9462	Thermoelectricity of Quantum Matter	01.04.2011	31.10.2015	E138	698253,5138917	
9477	/fpl/project/index.xhtml?id=9477	Theorie von Oxidoberflächen und Metall/Oxid Grenzflächen	15.03.2011	14.03.2019	E134	472309,1961517,348241,5589493	
9486	/fpl/project/index.xhtml?id=9486	Methoden des online monitorings zur Verschleißuntersuchung an schwer zugänglichen Tribokontakten	01.05.2011	30.04.2014	E134	1836389,2982185	
9514	/fpl/project/index.xhtml?id=9514	Thin films on hollow glass spheres	01.04.2011	31.03.2014	E138	2061809,1839745	
9516	/fpl/project/index.xhtml?id=9516	SFB-Teilprojekt F 4507-N16, Wachstum und Oberflächeneigenschaften von Perovskiten	01.04.2011	31.03.2019	E134	1026425,6716397,700897,9622397,6251969	
9551	/fpl/project/index.xhtml?id=9551	Kooperative Studie über Confokale Mikro-XRF für leichte Elemente in der Forensik	01.06.2011	31.12.2013	E141	296761,1275257,1306125	
9571	/fpl/project/index.xhtml?id=9571	Thermoelektrisches Modul zur Restwärmenutzung	01.05.2011	31.03.2013	E138	1001741,3206569	
9587	/fpl/project/index.xhtml?id=9587	Zirkonoxid-Schichten und Zirkonoxid-Metall-Systeme	15.03.2011	15.03.2019	E134	2091741,15945829,6716397,11748909	
9599	/fpl/project/index.xhtml?id=9599	Novel Materials for NanoImprint Lithography	01.04.2011	31.03.2014	E134	10909113	
9601	/fpl/project/index.xhtml?id=9601	Immunologie unter dem Nanoskop	01.11.2004	31.10.2012	E134	10909113	
9602	/fpl/project/index.xhtml?id=9602	detecting rafts in the live cell plasma membrane - from resting state to signaling	01.10.2009	30.09.2014	E134	10909113,9738757	
9603	/fpl/project/index.xhtml?id=9603	Single molecule tracking of oxidized phospholopids in the live cell plasma membrane	01.10.2009	30.09.2014	E134	10909113,7306173	
9703	/fpl/project/index.xhtml?id=9703	Qualifizierung einer Zyanat-Ester / Epoxy Mischung für die TF Spulen von ITER	01.07.2011	30.06.2012	E141	1755505,2783097,247477	
9762	/fpl/project/index.xhtml?id=9762	Dichte Materie im QCD Phasendiagramm und in kompakten Sternen	01.08.2011	31.07.2014	E136	3897333,13220357,48713	
9765	/fpl/project/index.xhtml?id=9765	Synchrotronstrahlungsinduzierte GIXRF mit Absorptionsspektroskopie	01.08.2011	29.02.2016	E141	296761,2881197	
9800	/fpl/project/index.xhtml?id=9800	Kooperation mit der Taif Universität zur Unterstützung der Ausbildung und Forschung in den Naturwissenschaften	01.01.2015	31.12.2020	E141	1467717	
9801	/fpl/project/index.xhtml?id=9801	Matroshka-2 Kibô: Passive Thermolumineszenzdosimetrie	15.08.2011	30.06.2012	E141	879741,2147601,8017997	
9825	/fpl/project/index.xhtml?id=9825	Fourier Monte Carlo Simulation von Elastischen Membranen	15.09.2011	14.09.2014	E136	11388269,13778401	
9857	/fpl/project/index.xhtml?id=9857	Europäische Entwicklung von supraleitenden Bandleitern: Einbindung neuartiger Materialien und Architekturen in kosteneffiziente Herstellungsmethoden für die Anwendung in Energietechnik und Magneten	01.09.2012	28.02.2017	E141	977965,14753489,1755505	
9887	/fpl/project/index.xhtml?id=9887	Vergleich von Forschungsreaktoren und deren Einsatz für eine kommerzielle Nutzung	01.12.2011	30.06.2013	E141	1547525,47741	
9893	/fpl/project/index.xhtml?id=9893	Quantum criticality in strongly correlated magnets	01.10.2011	30.09.2016	E138	3902277,4818693,2282677	
9896	/fpl/project/index.xhtml?id=9896	Quantenmechanische Zufallsfolgen in der Physik	20.10.2011	19.10.2015	E136	383457	
9957	/fpl/project/index.xhtml?id=9957	Systematische Untersuchung des Flussliniengitters in einem
Supraleiter mittels Rastertunnelmikroskopie	01.01.2012	30.06.2015	E141	2660749	
10037	/fpl/project/index.xhtml?id=10037	Matrix Modelle, Quanten Räume und Gravitation	01.07.2009	30.10.2012	E136	12771389	
10045	/fpl/project/index.xhtml?id=10045	Charakterisierung von NbTi Supraleitern für die ITER PF Spulen	12.11.2011	31.12.2011	E141	1755505	
10046	/fpl/project/index.xhtml?id=10046	Künstliche Radioaktivität in Österreich nach dem Reaktorunfall von Fukushima - Pilotstudie	11.10.2011	30.06.2014	E141	1555165	
10113	/fpl/project/index.xhtml?id=10113	Hochtemperatursupraleiter für Fusionsmagnete	19.01.2012	01.07.2013	E141	1755505,2783097	
10119	/fpl/project/index.xhtml?id=10119	Seltene Erd freie Dauermagnete	01.05.2012	30.04.2015	E138	579065,14729601	
10128	/fpl/project/index.xhtml?id=10128	Kernfusionsforschung Impulsprojekt	01.01.2012	30.06.2012	E141	1755505	
10162	/fpl/project/index.xhtml?id=10162	Mikroskopische Prozesse und Phänomene auf oxidischen Oberflächen und Grenzflächen	01.02.2012	31.01.2017	E134	1026425,13203893,9663781,1009229	
10180	/fpl/project/index.xhtml?id=10180	Nichtlineare Optik und Laserverhalten von komplexen Medien	01.06.2012	30.05.2015	E136	1026297	
10190	/fpl/project/index.xhtml?id=10190	Neutron interferometry as a Test for Standard Model and Newton Gravitaional Forces	01.02.2012	31.12.2016	E141		
10214	/fpl/project/index.xhtml?id=10214	Supermolecular organization of transmembrane transporters	01.02.2012	31.01.2018	E134	10909113	
10223	/fpl/project/index.xhtml?id=10223	Infrared Optical Nanostructures IR-ON SFB: Theorie und Modellierung von optischen Bauelementen im Infrarotbereich (Projekt P14)	01.03.2012	28.02.2015	E136	1026297	
173787	/fpl/project/index.xhtml?id=173787	Geordnete Strukturen in dipolaren und Ferrofluid-Systemen	01.04.2012	31.03.2015	E136	475109	
174012	/fpl/project/index.xhtml?id=174012	DOC-Stipendium Stefan Sunzenauer	01.04.2012	31.12.2013	E134	10909113	
192622	/fpl/project/index.xhtml?id=192622	KKKÖ Impulsprojekt 2012	01.03.2012	31.12.2013	E134	575113,585817	
192693	/fpl/project/index.xhtml?id=192693	Generalisierte AdS4/CFT3 Dualitäten	01.06.2012	31.07.2015	E136	1793377	
198675	/fpl/project/index.xhtml?id=198675	Beratung bei der Durchführung des Sicherheitskontrollgesetzes 1991/IV			E141	3036057,2825741	
202152	/fpl/project/index.xhtml?id=202152	Phonons, electromagnons and magnetic ordering	01.08.2012	30.04.2016	E138	8284201,932417,27406149	
214497	/fpl/project/index.xhtml?id=214497	Agreement for the European Japanese Exchange Project in Nuclear Disciplines	01.10.2012	30.09.2015	E141	1471637	
220298	/fpl/project/index.xhtml?id=220298	Dynamics of One-Dimensional Gases of Bosons and Fermions	01.08.2012	31.07.2014	E141	11879841	
221226	/fpl/project/index.xhtml?id=221226	Patchy Particles als Bausteine der Weichen Materie	01.08.2012	31.07.2015	E136	10335889	
226422	/fpl/project/index.xhtml?id=226422	Quantendynamik von opto- und nanomechanischen Systemen	01.09.2012	30.09.2017	E141	12581869,8873045,1036521,4068789,270273	
233300	/fpl/project/index.xhtml?id=233300	Thermoelekttrische Käfigverbindungen	01.09.2012	31.08.2015	E138	1001741,2001237,3927493,481545	
233746	/fpl/project/index.xhtml?id=233746	Ersatz herkömmlicher Dauermagnetwerkstoffe	01.12.2012	31.12.2015	E138	579065,278889,5903809,14049737	
233758	/fpl/project/index.xhtml?id=233758	Offene Strings, das Standardmodell und der LHC	01.09.2012	31.08.2014	E136	7213037	
235338	/fpl/project/index.xhtml?id=235338	Oberflächenforschung an Magnetit	01.10.2012	30.09.2016	E134	6251969	
239036	/fpl/project/index.xhtml?id=239036	DaCAM			E136	475109	
241706	/fpl/project/index.xhtml?id=241706	Transportmeasurements on NbTi superconductors for ITER	01.10.2012	31.12.2012	E141	1755505	
257071	/fpl/project/index.xhtml?id=257071	Schwache Messungen, Phasen und Verschränkung mit Neutronen	01.01.2013	31.12.2016	E141	3045697	
261114	/fpl/project/index.xhtml?id=261114	Höhere Spin-Gravitation, Holographie und Integrabilität	01.11.2012	31.10.2015	E136	1793377,10925217,11595533	
263866	/fpl/project/index.xhtml?id=263866	Charakterisierung von Nanometer-Schichten durch Röntgenfluoreszenzanalyse unter streifendem Einfall kombiniert mit Röntgenreflektometrie	01.01.2013	31.12.2013	E141	296761,1737737	
265198	/fpl/project/index.xhtml?id=265198	Quantenphysik mit mechanischen Schwingungszuständen	01.10.2013	31.01.2014	E141	11416837	
267661	/fpl/project/index.xhtml?id=267661	Nanostrukturierte Übergangsmetall-Klathrate und Klathrat-Oxid-Nanokomposite	01.12.2012	31.01.2016	E138	698253,2181125	
276073	/fpl/project/index.xhtml?id=276073	Ab initio Dynamische Vertex Approximation	01.01.2013	31.12.2017	E138	5797569,7088053,10634697,8040797,8364825,27875173,23691565,20921513,2664029,964041,8469929,2965961,11146333,1521205,7671493	
278505	/fpl/project/index.xhtml?id=278505	Nanofaser-basierte optische Zugkraft und Hohlraum QED	01.02.2013	31.03.2014	E141	12581117	
287507	/fpl/project/index.xhtml?id=287507	Forschungskooperation EU-Lateinamerika in INnovationstechnologier	15.09.2012	31.10.2014	E134	644645	
289035	/fpl/project/index.xhtml?id=289035	Simulationen und Schnittstellen in Quantensystemen	01.05.2013	30.04.2016	E141	656041,12581869,7804773	
289753	/fpl/project/index.xhtml?id=289753	KKKÖ Impulsprojekt 2013	01.01.2013	31.12.2013	E134	575113	
291297	/fpl/project/index.xhtml?id=291297	Hochtemperatursupraleiter für Fusionsmagnete	01.01.2013	31.12.2015	E141	133405	
291709	/fpl/project/index.xhtml?id=291709	Ionen-induzierte Nanostrukturierung von Festkoerperoberflaechen	31.03.2013	30.03.2016	E134	575113	
293629	/fpl/project/index.xhtml?id=293629	Ein Quantenschalter für Licht	01.01.2013	31.12.2018	E141	7804773	
297830	/fpl/project/index.xhtml?id=297830	Erzeugung teilchenartiger Streuzustände im dissipativen Wellentransport	31.03.2013	30.03.2016	E136	1026297	
299631	/fpl/project/index.xhtml?id=299631	Strong Coupling of Remote Ultra-high Q Microresonators	01.03.2013	28.02.2017	E141	7804773	
300576	/fpl/project/index.xhtml?id=300576	Nicht-Gleichgewichtsdynamik in Quantenvielteilchensystemen	01.06.2013	31.05.2018	E141	656041	
300907	/fpl/project/index.xhtml?id=300907	Periodische Strukturen mittel Sub-10fsc-Laserstrahlung	01.12.2012	31.08.2013	E134	852785	
307336	/fpl/project/index.xhtml?id=307336	Solving CHAllenges in Nuclear DAta	01.12.2013	30.11.2017	E141	831521	
314160	/fpl/project/index.xhtml?id=314160	Immun Mechano Mikroskopie: Die Messung von Interaktionen in der Immunologischen Synapse auf Einzelmolekül-Niveau			E134	13166569	
316607	/fpl/project/index.xhtml?id=316607	Optomechanical systems as building blocks for optical and quantum information processing	01.01.2013	31.12.2015	E141	12581869	
323592	/fpl/project/index.xhtml?id=323592	Coupling and Cavity Interaction in Quantum Cascade Lasers and Detectors	01.03.2013	28.02.2017	E136	1028433	
323936	/fpl/project/index.xhtml?id=323936	Coupling and Cavity Interaction in Quantum Cascade Lasers and Detectors	01.03.2013	28.02.2017	E136	1026297	
325978	/fpl/project/index.xhtml?id=325978	Beschichtung fragiler Granulate im grossen Masstab	01.07.2013	30.06.2016	E138	2061809,6595577	
327345	/fpl/project/index.xhtml?id=327345	Strukturen und Eigenschaften von Boriden mit 2D bzw. 3D Netzwerk	01.05.2013	30.09.2016	E138	4788329	
339186	/fpl/project/index.xhtml?id=339186	Einzelmolekül-Plattform für Protein Interaktions Analysen	22.04.2013	21.04.2016	E134	10909113	
341962	/fpl/project/index.xhtml?id=341962	Kernfusionsforschung (KKKÖ) "Impulsprojekt Florian Köchl"	01.06.2013	31.12.2014	E141	133405	
350406	/fpl/project/index.xhtml?id=350406	Christian Doppler Labor für Thermoelektrizität	01.07.2013	30.06.2018	E138	1001741,14065201,6249817,582313	
357476	/fpl/project/index.xhtml?id=357476	Zukünftige magnetische Sensoren	01.07.2013	30.06.2020	E138	620485,3677713,2753141,4322357,2678665	
357507	/fpl/project/index.xhtml?id=357507	NbTi strands for the ITER poloidal field coils	01.07.2013	30.10.2014	E141	133405	
362702	/fpl/project/index.xhtml?id=362702	Lagerung und Manipulation von radioaktiven Materialien	01.08.2013	31.12.2017	E141	1120901	
380044	/fpl/project/index.xhtml?id=380044	Neutron Beta Decays and Search of Deviations from Standard Model	01.09.2013	31.08.2016	E141	2819721	
391087	/fpl/project/index.xhtml?id=391087	Evaluation of fuelling requirements and transient density behaviour in ITER reference operational scenarios	09.09.2013	10.06.2016	E141	133405	
396470	/fpl/project/index.xhtml?id=396470	Anisotrope und ungleichgewicht Quark-Gluon Plasma	01.11.2013	31.10.2016	E136	1185641	
399321	/fpl/project/index.xhtml?id=399321	Nano-Photovoltaics	21.10.2013	20.10.2014	E134	3082085	
401345	/fpl/project/index.xhtml?id=401345	Defining polarized neutron beams in high precision experiments with PERC	01.12.2013	30.11.2016	E141		
401491	/fpl/project/index.xhtml?id=401491	Electron and Proton spectroscopy for PERC	01.11.2013	31.12.2016	E141	2510661	
403819	/fpl/project/index.xhtml?id=403819	Verknüpfung von GW und Dynamischer Molekularfeldtheorie (NEU)	22.12.2013	21.12.2016	E138	5797569,2282677,10815197	
412257	/fpl/project/index.xhtml?id=412257	Messung des Effekts von Neutronenbestrahlung an Isolatoren und Supraleitern für das Upgrade des Large Hadron Collider (LHC)	14.11.2013	13.01.2015	E141	133405	
418839	/fpl/project/index.xhtml?id=418839	Niederenergetische Elektronen: Quellen, Wechselwirkung mit Festkörpern, Detektion und Analyse	01.09.2014	31.08.2018	E134	431801	
429811	/fpl/project/index.xhtml?id=429811	Laborversuche zur Plasma-Wand-Wechselwirkung in Fusionsexperimenten	17.12.2013	28.02.2015	E134	575113,6674501	
431321	/fpl/project/index.xhtml?id=431321	Precision measurement of proton asymmetry in neutron decay	01.02.2014	31.01.2017	E141	2510661	
431425	/fpl/project/index.xhtml?id=431425	Mechanische Kräfte bei der T-Zell Antigen Erkennung	01.01.2014	31.12.2018	E134	10909113	
431439	/fpl/project/index.xhtml?id=431439	In Vivo Nanopatterning of Membrane Proteins	01.12.2013	30.11.2016	E134	10909113	
432063	/fpl/project/index.xhtml?id=432063	Quark-Gluon-Plasma Dynamik mit Colored-Particle-in-Cell Simulationen	01.02.2014	31.01.2017	E136	5652557	
433252	/fpl/project/index.xhtml?id=433252	Glueball Suche mit Hilfe von Holographie und Phänomenologie	01.03.2014	28.02.2017	E136	1185641	
435618	/fpl/project/index.xhtml?id=435618	Inter-ELM pedestal structure development in ASDEX Upgrade	01.03.2014	30.06.2016	E134	575113	
437831	/fpl/project/index.xhtml?id=437831	Aktivierung von T-Zellen an nanofunktionalisierten Oberflächen	01.01.2014	31.12.2014	E134	644645	
437854	/fpl/project/index.xhtml?id=437854	Wittgenstein Akademie	01.02.2014	31.01.2016	E141	656041	
441552	/fpl/project/index.xhtml?id=441552	Solving CHAllenges in Nuclear DAta	01.12.2013	30.11.2017	E141	831521	
445545	/fpl/project/index.xhtml?id=445545	Photonic Cluster States from Diamond	01.03.2014	29.02.2016	E141	7620541	
446530	/fpl/project/index.xhtml?id=446530	Von organismischen zu biomolekularen Interaktionen:
Visualisierung von an der Signalweiterleitung beteiligten Proteinkomplexen in der Pilzmembran	01.03.2014	28.02.2018	E134	10909113,1262093,3496729,15035297	
449713	/fpl/project/index.xhtml?id=449713	Measuring the Th-229 isomer energy with a microcalorimeter	01.04.2014	31.03.2016	E141	5041521	
452550	/fpl/project/index.xhtml?id=452550	Doktoratskolleg Particles and Interactions	01.03.2014	28.02.2018	E136	1185641	
454990	/fpl/project/index.xhtml?id=454990	Probing the electric neutrality of the neutron	01.05.2014	30.04.2017	E141	2510661	
455324	/fpl/project/index.xhtml?id=455324	Stringphenomenologie in der LHC Ara	01.09.2014	31.08.2017	E136	7213037	
455335	/fpl/project/index.xhtml?id=455335	Phasen von kalter und dichter Quark-Materie	01.05.2014	30.04.2016	E136	18251469	
464429	/fpl/project/index.xhtml?id=464429	PWI - Talente	10.04.2014	31.12.2014	E134	575113	
465739	/fpl/project/index.xhtml?id=465739	Wittgensteinpreis	01.02.2014	31.01.2019	E134	1026425	
469516	/fpl/project/index.xhtml?id=469516	Quantengravität durch Holographie	01.05.2014	30.04.2016	E136	9984921	
472263	/fpl/project/index.xhtml?id=472263	Entwicklung von Kerndatenbanken	11.06.2014	10.06.2016	E141	831521	
490109	/fpl/project/index.xhtml?id=490109	Simulationen für Advanced Storage Technology Committee	01.07.2014	30.06.2016	E138	620485	
495056	/fpl/project/index.xhtml?id=495056	Neuartige Photoinitiatorsysteme für die Polymerisation durch Zweiphotonenabsorption	01.12.2014	31.05.2017	E134	1121089,852785,10564985	
495313	/fpl/project/index.xhtml?id=495313	Kolossaler magnetoelektrischer Effekt in neuen Multiferroika	01.09.2014	31.08.2017	E138		
495936	/fpl/project/index.xhtml?id=495936	Holographie flacher Raumzeiten	01.10.2014	30.09.2017	E136	1793377	
498910	/fpl/project/index.xhtml?id=498910	Nano-Analytik von zellulären Systemen (NanoCell)	01.03.2014	28.02.2018	E134	10909113	
506719	/fpl/project/index.xhtml?id=506719	Analog quantum simulators for many-body dynamics	01.01.2015	31.12.2017	E141	656041	
507511	/fpl/project/index.xhtml?id=507511	Kondo Insulator Interfaces	21.07.2014	20.07.2017	E138	698253	
507832	/fpl/project/index.xhtml?id=507832	Hochtemperatursupraleiter für Fusionsmagnete	01.01.2014	31.12.2015	E141	133405	
518336	/fpl/project/index.xhtml?id=518336	Matching Grant David Fischer	01.09.2014	31.08.2016	E141	133405	
526292	/fpl/project/index.xhtml?id=526292	Höhere-Spin Holographie in gekrümmten Räumen	01.11.2014	31.10.2017	E136	11595533	
526812	/fpl/project/index.xhtml?id=526812	Elektrochemische Interferenz	01.11.2014	31.10.2017	E136	5435665	
527147	/fpl/project/index.xhtml?id=527147	Produktion und Review von Teaching Materials für INSEN	01.10.2014	31.05.2016	E141	3027973	
527668	/fpl/project/index.xhtml?id=527668	theorie	01.11.2014	31.10.2015	E136	30369509	
530167	/fpl/project/index.xhtml?id=530167	Cavity Cooling of Dielectric Nanoparticles	01.11.2014	31.10.2017	E141	7620541	
533766	/fpl/project/index.xhtml?id=533766	Plasma-Wall Interaction and Transport in Edge Plasmas	01.01.2014	31.12.2016	E134	575113	
535240	/fpl/project/index.xhtml?id=535240	StarPATT - Eine Platform zur Detektion von Protein-Protein Interaktionen mittels Micropatterning	01.04.2014	30.09.2016	E134	10909113	
541504	/fpl/project/index.xhtml?id=541504	Kinetic Modelling of the Plasma Edge	01.01.2014	31.12.2016	E134	13639821	
548420	/fpl/project/index.xhtml?id=548420	Temperaturwahrnehmung durch Nanostrukturen in Zellmembranen	01.12.2014	30.11.2017	E134	9462789	
559718	/fpl/project/index.xhtml?id=559718	Adaptives Zeitsplitting für Propagation von Vielteilchen-Quantensystemen	01.01.2015	31.08.2018	E136	1964717	
568368	/fpl/project/index.xhtml?id=568368	Terahertz Spektroskopie des topologischen Isolatoren HgTe	01.02.2015	31.01.2018	E138	8489033	
569289	/fpl/project/index.xhtml?id=569289	Multidisciplinary evaluation of the cancer risk from neutrons relative to photons using stem cells and the induction of second malignant neoplasms following paediatric radiation therapy	01.01.2015	31.12.2015	E141	32791365	
569747	/fpl/project/index.xhtml?id=569747	Weiche Materie	01.01.2015	31.05.2018	E136	475109	
574401	/fpl/project/index.xhtml?id=574401	Laborversuche zur Plasma-Wand-Wechselwirkung in Fusionsexperimenten 2	01.01.2015	31.03.2016	E134	575113	
575401	/fpl/project/index.xhtml?id=575401	Collective Phenomena in Oxide Films and Hetero-structures	01.01.2015	31.12.2018	E138	3902277	
579897	/fpl/project/index.xhtml?id=579897	Entangled Twin Atom Beams	01.04.2015	31.03.2017	E141	656041,3291353	
579948	/fpl/project/index.xhtml?id=579948	Many-body effects in hybrid quantum systems	01.04.2015	31.03.2017	E141		
579962	/fpl/project/index.xhtml?id=579962	Nanofiber-based atomic Bragg structures	01.05.2015	31.08.2017	E141	7804773	
580321	/fpl/project/index.xhtml?id=580321	DOC [Doktorand/inn/enprogramm der Österreichischen Akademie der Wissenschaften]	01.03.2015	28.02.2017	E136	6201593	
586993	/fpl/project/index.xhtml?id=586993	Towards a nuclear clock with Thorium-229	01.07.2015	30.06.2019	E141	5041521,1111621	
591757	/fpl/project/index.xhtml?id=591757	Synchrotron Nano X-ray Radiation Fluorescence Spectrometry of  Human Bone	01.04.2015	31.03.2018	E141	296761	
591881	/fpl/project/index.xhtml?id=591881	Palmitoylierung in der frühen T-Zell Signaltransduktion	01.04.2015	31.03.2018	E134	11322561	
593238	/fpl/project/index.xhtml?id=593238	New uncertainty relations and wave-particle duality studied with neutrons	01.04.2015	31.03.2018	E141	1471637,6705741	
596547	/fpl/project/index.xhtml?id=596547	Erzeugung magnetischer Metamaterialien durch direktes schreiben mit fokussierten Ionenstrahlen	01.04.2015	31.03.2018	E134	1009229	
610344	/fpl/project/index.xhtml?id=610344	Eine e-Infrastruktur für Software, Training und Consultation in Simulationen und Modellierung	01.06.2015	31.05.2019	E136	475109	
619871	/fpl/project/index.xhtml?id=619871	Forschungsaufenthalt GROW-Stipendiatin Raisa Trupko	01.09.2015	31.08.2016	E141	656041	
625166	/fpl/project/index.xhtml?id=625166	Organische Moleku¿le auf Transparenten Leitfähigen Oxiden: Grundlegende Studien	01.10.2015	30.09.2018	E134	11130329	
652710	/fpl/project/index.xhtml?id=652710	Semi-holographische Quantenfeldtheorien und Anwendungen	01.10.2015	30.09.2017	E136	6090509	
672643	/fpl/project/index.xhtml?id=672643	New frontiers of femtosecond magnetisation dynamics	16.11.2015	15.11.2017	E138	964041	
687501	/fpl/project/index.xhtml?id=687501	Oberflächenphysikalische Untersuchung von Einzelatomkatalysatoren	01.01.2016	31.12.2021	E134	6251969	
689050	/fpl/project/index.xhtml?id=689050	Rauschen von magnetischen Sensoren	01.01.2016	01.01.2017	E138	620485